<svg width="277" height="5457" viewBox="0 0 277 5457" fill="none" xmlns="http://www.w3.org/2000/svg">
  <path d="M195.448 883.487C-11.7908 623.149 60.1438 324.786 173.194 163.183C210.449 109.926 272.736 30.742 277 0V54.9359V5457C-302.5 4271 470 4105.5 140.5 3843C-7.61263 3725 -82.2974 3403.47 140.5 3141.5C277 2981 248.3 2740.99 223.762 2748.89C159.585 2785.18 128.482 2825.24 55.9998 2776C-16.4824 2726.76 50.1064 2586.33 150.147 2512.16C245.038 2441.8 276.991 2310.47 195.448 2223.35C93.5203 2114.46 87.821 1906.14 93.5204 1835.12C100.784 1744.62 182.153 1569.4 195.448 1498.97C202.893 1459.54 201.762 1367.87 150.147 1342.73C-54.7186 1242.96 97.2954 1061.82 195.448 992.38C223.824 972.305 228.915 934.236 195.448 883.487Z" fill="#F6EBF4"/>
</svg>
