<svg viewBox="0 0 120 84" fill="none" xmlns="http://www.w3.org/2000/svg" xmlns:xlink="http://www.w3.org/1999/xlink">
<path d="M61.6399 63.733L118.5 31.2279V81.8473H1.55273V31.1914L60.1673 63.7421L60.9062 64.1525L61.6399 63.733Z" fill="url(#pattern0)" stroke="url(#paint0_linear)" stroke-width="3"/>
<path d="M0.0527344 5C0.0527344 2.23858 2.29131 0 5.05273 0H115C117.761 0 120 2.23858 120 5V18.0408C120 19.8212 119.053 21.4673 117.514 22.3626L61.7083 54.8294C60.1344 55.7451 58.1872 55.7327 56.625 54.7972L2.48375 22.3724C0.975738 21.4693 0.0527344 19.8406 0.0527344 18.0829V5Z" fill="#9EFF85"/>
<defs>
<pattern id="pattern0" patternContentUnits="objectBoundingBox" width="1" height="1">
<use xlink:href="#image0" transform="translate(0 -0.230966) scale(0.000244141 0.00053531)"/>
</pattern>
<linearGradient id="paint0_linear" x1="60.0263" y1="28.6426" x2="60.0263" y2="83.3473" gradientUnits="userSpaceOnUse">
<stop stop-color="#9EFF85"/>
<stop offset="1" stop-color="#FFA6C6"/>
</linearGradient>
</defs>
</svg>
